…
```
## `summarise()` has grouped output by 'genus_name'. You can override using the
## `.groups` argument.
```

```r
print (TreeFreq)
```

```
## # A tibble: 361 × 2
##    tree_species           n
##    <chr>              <int>
##  1 PRUNUS SERRULATA   13357
##  2 PRUNUS CERASIFERA  12031
##  3 ACER PLATANOIDES   11963
##  4 ACER RUBRUM         8467
##  5 CARPINUS BETULUS    5195
##  6 FAGUS SYLVATICA     4694
##  7 TILIA EUCHLORA   X  4427
##  8 ACER FREEMANI   X   4164
##  9 ACER CAMPESTRE      3477
## 10 MAGNOLIA KOBUS      2691
## # ℹ 351 more rows
```
…
top10_tree <- vancouver_trees  %>%
  unite(col = "tree_species", c(genus_name, species_name), sep = " ") %>%
  filter(tree_species %in% c("PRUNUS SERRULATA","PRUNUS CERASIFERA","ACER PLATANOIDES", "ACER RUBRUM","CARPINUS BETULUS", "FAGUS SYLVATICA", "TILIA EUCHLORA   X", "ACER FREEMANI   X","ACER CAMPESTRE", "MAGNOLIA KOBUS")) %>%
  group_by(tree_species, neighbourhood_name)%>%
  mutate (n_tree = n()) %>%
  select(tree_species, neighbourhood_name, n_tree) %>%
  distinct()

print(top10_tree)
```

```
## # A tibble: 220 × 3
## # Groups:   tree_species, neighbourhood_name [220]
##    tree_species       neighbourhood_name       n_tree
##    <chr>              <chr>                     <int>
##  1 ACER CAMPESTRE     KENSINGTON-CEDAR COTTAGE    332
##  2 ACER PLATANOIDES   KENSINGTON-CEDAR COTTAGE    676
##  3 TILIA EUCHLORA   X KENSINGTON-CEDAR COTTAGE    321
##  4 ACER PLATANOIDES   OAKRIDGE                    256
##  5 PRUNUS SERRULATA   RILEY PARK                  822
##  6 CARPINUS BETULUS   DOWNTOWN                    289
##  7 ACER RUBRUM        DOWNTOWN                   1019
##  8 ACER PLATANOIDES   GRANDVIEW-WOODLAND          349
##  9 PRUNUS CERASIFERA  KITSILANO                   435
## 10 MAGNOLIA KOBUS     WEST POINT GREY              67
## # ℹ 210 more rows
```


```r
# I know there is 22 neighborhoods. I want to quick check if these trees are present in all neighborhoods

neighbourtree_top10 <- top10_tree  %>%
   arrange(neighbourhood_name) %>%
   pivot_wider(names_from = "tree_species",
              values_from = "n_tree")
print(neighbourtree_top10 )
```

```
## # A tibble: 22 × 11
## # Groups:   neighbourhood_name [22]
##    neighbourhood_name       `ACER RUBRUM` `PRUNUS CERASIFERA` `ACER PLATANOIDES`
##    <chr>                            <int>               <int>              <int>
##  1 ARBUTUS-RIDGE                      239                 895                213
##  2 DOWNTOWN                          1019                   3                348
##  3 DUNBAR-SOUTHLANDS                  403                1061               1165
##  4 FAIRVIEW                           567                 134                354
##  5 GRANDVIEW-WOODLAND                 473                 165                349
##  6 HASTINGS-SUNRISE                   476                 972                821
##  7 KENSINGTON-CEDAR COTTAGE           558                 557                676
##  8 KERRISDALE                         293                 632               1067
##  9 KILLARNEY                          526                 522                169
## 10 KITSILANO                          315                 435               1188
## # ℹ 12 more rows
## # ℹ 7 more variables: `ACER FREEMANI   X` <int>, `FAGUS SYLVATICA` <int>,
## #   `PRUNUS SERRULATA` <int>, `ACER CAMPESTRE` <int>, `CARPINUS BETULUS` <int>,
## #   `MAGNOLIA KOBUS` <int>, `TILIA EUCHLORA   X` <int>
```
…
tree_height_scale <- vancouver_trees  %>%
  unite(col = "tree_species", c(genus_name, species_name), sep = " ") %>%
  arrange(height_range_id, tree_species, neighbourhood_name) %>%
  select(tree_id, tree_species, neighbourhood_name, date_planted, height_range_id)%>%
  mutate(tree_scale = case_when(height_range_id <= 2 ~ "short",
                           height_range_id > 2 & height_range_id <= 5 ~ "medium",
                           height_range_id > 5 & height_range_id <= 8 ~ "tall",
                           height_range_id > 8 ~ "x_tall"))
print(tree_height_scale)
```

```
## # A tibble: 146,611 × 6
##    tree_id tree_species   neighbourhood_name  date_planted height_range_id
##      <dbl> <chr>          <chr>               <date>                 <dbl>
##  1   32577 ACER CAMPESTRE DUNBAR-SOUTHLANDS   NA                         0
##  2  138718 ACER CAMPESTRE DUNBAR-SOUTHLANDS   2011-11-25                 0
##  3  197277 ACER CAMPESTRE DUNBAR-SOUTHLANDS   NA                         0
##  4  198676 ACER CAMPESTRE DUNBAR-SOUTHLANDS   NA                         0
##  5  199753 ACER CAMPESTRE DUNBAR-SOUTHLANDS   NA                         0
##  6  197281 ACER CAMPESTRE DUNBAR-SOUTHLANDS   NA                         0
##  7  199752 ACER CAMPESTRE DUNBAR-SOUTHLANDS   NA                         0
##  8  199754 ACER CAMPESTRE DUNBAR-SOUTHLANDS   NA                         0
##  9  161379 ACER CAMPESTRE RENFREW-COLLINGWOOD NA                         0
## 10  195443 ACER CAMPESTRE SHAUGHNESSY         NA                         0
## # ℹ 146,601 more rows
## # ℹ 1 more variable: tree_scale <chr>
```
…
```r
# *1.2 - 2. Compute the number of observations for at least one of your categorical variables. Do not use the function table()!*

#Create a table selecting the trees that have information about the date plated. While making the new table added the number of that specific tree species plated in that date.
#Using the top 10 tree table generated in the previous question.

tree_n_years <- tree_size_top10  %>%
    filter(!is.na(date_planted))%>%
   group_by(date_planted) %>%
   mutate(date_n_count = n())
print(tree_n_years)
```

```
## # A tibble: 30,334 × 7
## # Groups:   date_planted [3,333]
##    tree_id tree_species      neighbourhood_name date_planted height_range_id
##      <dbl> <chr>             <chr>              <date>                 <dbl>
##  1  138718 ACER CAMPESTRE    DUNBAR-SOUTHLANDS  2011-11-25                 0
##  2   52436 ACER FREEMANI   X SUNSET             2014-11-28                 0
##  3   52428 ACER FREEMANI   X SUNSET             2014-11-28                 0
##  4   48424 ACER FREEMANI   X SUNSET             2014-11-28                 0
##  5   52445 ACER FREEMANI   X SUNSET             2014-12-01                 0
##  6   61984 ACER PLATANOIDES  SUNSET             2013-12-11                 0
##  7   62006 ACER PLATANOIDES  SUNSET             2013-12-11                 0
##  8   62008 ACER PLATANOIDES  SUNSET             2013-12-11                 0
##  9   54784 ACER PLATANOIDES  SUNSET             2014-12-01                 0
## 10   52449 ACER PLATANOIDES  SUNSET             2014-12-01                 0
## # ℹ 30,324 more rows
## # ℹ 2 more variables: tree_scale <chr>, date_n_count <int>
```
…
```r
# *1.2 - 2. Compute the number of observations for at least one of your categorical variables. Do not use the function table()!

# Creating a new column with the observation number of each tree species height scale per neighborhood.
neighbor_tree_height <- tree_size_top10 %>%
  select(tree_species, neighbourhood_name, tree_scale, height_range_id)%>%
  group_by(neighbourhood_name, tree_species, tree_scale)%>%
  mutate(n_tree = n())%>%
  distinct()
print(neighbor_tree_height)
```

```
## # A tibble: 1,222 × 5
## # Groups:   neighbourhood_name, tree_species, tree_scale [552]
##    tree_species      neighbourhood_name       tree_scale height_range_id n_tree
##    <chr>             <chr>                    <chr>                <dbl>  <int>
##  1 ACER CAMPESTRE    DUNBAR-SOUTHLANDS        short                    0    168
##  2 ACER CAMPESTRE    RENFREW-COLLINGWOOD      short                    0    186
##  3 ACER CAMPESTRE    SHAUGHNESSY              short                    0    100
##  4 ACER FREEMANI   X SUNSET                   short                    0    219
##  5 ACER PLATANOIDES  DUNBAR-SOUTHLANDS        short                    0    320
##  6 ACER PLATANOIDES  KENSINGTON-CEDAR COTTAGE short                    0    418
##  7 ACER PLATANOIDES  KERRISDALE               short                    0    366
##  8 ACER PLATANOIDES  SUNSET                   short                    0    390
##  9 ACER RUBRUM       DOWNTOWN                 short                    0    549
## 10 ACER RUBRUM       DUNBAR-SOUTHLANDS        short                    0    307
## # ℹ 1,212 more rows
```
…
<!--------------------------- Start your work below --------------------------->


```r
#The vancouver_trees dataset have more than 8 variables

#Selecting 8 variables
van_tree_8var = vancouver_trees %>%
  select(0:5, 18:20)
print(van_tree_8var)
```

```
## # A tibble: 146,611 × 8
##    tree_id civic_number std_street    genus_name species_name date_planted
##      <dbl>        <dbl> <chr>         <chr>      <chr>        <date>      
##  1  149556          494 W 58TH AV     ULMUS      AMERICANA    1999-01-13  
##  2  149563          450 W 58TH AV     ZELKOVA    SERRATA      1996-05-31  
##  3  149579         4994 WINDSOR ST    STYRAX     JAPONICA     1993-11-22  
##  4  149590          858 E 39TH AV     FRAXINUS   AMERICANA    1996-04-29  
##  5  149604         5032 WINDSOR ST    ACER       CAMPESTRE    1993-12-17  
##  6  149616          585 W 61ST AV     PYRUS      CALLERYANA   NA          
##  7  149617         4909 SHERBROOKE ST ACER       PLATANOIDES  1993-12-16  
##  8  149618         4925 SHERBROOKE ST ACER       PLATANOIDES  1993-12-16  
##  9  149619         4969 SHERBROOKE ST ACER       PLATANOIDES  1993-12-16  
## 10  149625          720 E 39TH AV     FRAXINUS   AMERICANA    1993-12-03  
## # ℹ 146,601 more rows
## # ℹ 2 more variables: longitude <dbl>, latitude <dbl>
```
…
```r
#Tidy data splitting back location into "longitude" or "latitude", and combining columns back to tree genus name.

tidy_van_tree = untidy_van_tree %>%
  separate(., location, c("longitude", "latitude"), sep ="_") %>%
  pivot_longer(!c(tree_id, std_street, species_name, date_planted,longitude, latitude), 
               names_to  = "genus_name", 
               values_to = "civic_number")%>%
  drop_na(civic_number) #In this case the NA values are artifacts and need to be removed.
print(tidy_van_tree)
```

```
## # A tibble: 146,611 × 8
##    tree_id std_street    species_name date_planted longitude latitude genus_name
##      <dbl> <chr>         <chr>        <date>       <chr>     <chr>    <chr>     
##  1  149556 W 58TH AV     AMERICANA    1999-01-13   -123.116… 49.2177… ULMUS     
##  2  149563 W 58TH AV     SERRATA      1996-05-31   -123.114… 49.2177… ZELKOVA   
##  3  149579 WINDSOR ST    JAPONICA     1993-11-22   -123.084… 49.2393… STYRAX    
##  4  149590 E 39TH AV     AMERICANA    1996-04-29   -123.086… 49.2346… FRAXINUS  
##  5  149604 WINDSOR ST    CAMPESTRE    1993-12-17   -123.084… 49.2389… ACER      
##  6  149616 W 61ST AV     CALLERYANA   NA           -123.119… 49.2151… PYRUS     
##  7  149617 SHERBROOKE ST PLATANOIDES  1993-12-16   -123.081… 49.2399… ACER      
##  8  149618 SHERBROOKE ST PLATANOIDES  1993-12-16   -123.081… 49.2397… ACER      
##  9  149619 SHERBROOKE ST PLATANOIDES  1993-12-16   -123.081… 49.2395… ACER      
## 10  149625 E 39TH AV     AMERICANA    1993-12-03   -123.089… 49.2347… FRAXINUS  
## # ℹ 146,601 more rows
## # ℹ 1 more variable: civic_number <dbl>
```
…
```r
#Using between 4 and 8 functions that we've covered so far.

top10_summary_vantree <- vancouver_trees  %>%
  unite(col = "tree_species", c(genus_name, species_name), sep = " ") %>%
  filter(tree_species %in% c("PRUNUS SERRULATA","PRUNUS CERASIFERA","ACER PLATANOIDES", "ACER RUBRUM","CARPINUS BETULUS", "FAGUS SYLVATICA", "TILIA EUCHLORA   X", "ACER FREEMANI   X","ACER CAMPESTRE", "MAGNOLIA KOBUS")) %>%
  group_by(tree_species, neighbourhood_name,height_range_id)%>%
  mutate(tree_count = n()) %>%
  distinct() %>%
  select(tree_id,tree_species,neighbourhood_name, height_range_id, date_planted, tree_count)
print(top10_summary_vantree)
```

```
## # A tibble: 70,466 × 6
## # Groups:   tree_species, neighbourhood_name, height_range_id [1,222]
##    tree_id tree_species       neighbourhood_name    height_range_id date_planted
##      <dbl> <chr>              <chr>                           <dbl> <date>      
##  1  149604 ACER CAMPESTRE     KENSINGTON-CEDAR COT…               2 1993-12-17  
##  2  149617 ACER PLATANOIDES   KENSINGTON-CEDAR COT…               3 1993-12-16  
##  3  149618 ACER PLATANOIDES   KENSINGTON-CEDAR COT…               3 1993-12-16  
##  4  149619 ACER PLATANOIDES   KENSINGTON-CEDAR COT…               2 1993-12-16  
##  5  149626 TILIA EUCHLORA   X KENSINGTON-CEDAR COT…               2 1993-12-03  
##  6  149636 TILIA EUCHLORA   X KENSINGTON-CEDAR COT…               5 1993-12-03  
##  7  149640 ACER PLATANOIDES   OAKRIDGE                            3 1993-12-15  
##  8  149680 ACER CAMPESTRE     KENSINGTON-CEDAR COT…               2 1993-12-20  
##  9  149683 ACER PLATANOIDES   OAKRIDGE                            3 1993-12-15  
## 10  149684 ACER PLATANOIDES   OAKRIDGE                            2 1993-12-15  
## # ℹ 70,456 more rows
## # ℹ 1 more variable: tree_count <int>
```
…
<!-------------------------- Start your work below ---------------------------->


```r
#Select the variable height_range_id to make p-value predictions 
height_lm <- lm(height_range_id ~ tree_species * neighbourhood_name, data = top10_summary_vantree)

#Obtain results using the `broom` package 
tidy_height_lm1 <- broom::tidy(height_lm)
print(tidy_height_lm1)
```

```
## # A tibble: 220 × 5
##    term                           estimate std.error statistic  p.value
##    <chr>                             <dbl>     <dbl>     <dbl>    <dbl>
##  1 (Intercept)                      2.19       0.106    20.6   2.58e-94
##  2 tree_speciesACER FREEMANI   X   -0.123      0.241    -0.510 6.10e- 1
##  3 tree_speciesACER PLATANOIDES     0.846      0.133     6.37  1.91e-10
##  4 tree_speciesACER RUBRUM          0.202      0.130     1.55  1.21e- 1
##  5 tree_speciesCARPINUS BETULUS     0.0676     0.146     0.463 6.43e- 1
##  6 tree_speciesFAGUS SYLVATICA      0.241      0.159     1.52  1.29e- 1
##  7 tree_speciesMAGNOLIA KOBUS      -0.144      0.143    -1.00  3.16e- 1
##  8 tree_speciesPRUNUS CERASIFERA    0.263      0.113     2.33  2.00e- 2
##  9 tree_speciesPRUNUS SERRULATA     0.212      0.120     1.77  7.64e- 2
## 10 tree_speciesTILIA EUCHLORA   X   2.15       0.189    11.4   6.42e-30
## # ℹ 210 more rows
```

```r
# Select significant p-values (p-value < 0.05)
tidy_height_lm2 <- tidy_height_lm1 %>%
 filter(p.value < 0.05) %>%
 arrange(p.value)  
print(tidy_height_lm2)
```

```
## # A tibble: 116 × 5
##    term                                    estimate std.error statistic  p.value
##    <chr>                                      <dbl>     <dbl>     <dbl>    <dbl>
##  1 (Intercept)                                2.19      0.106     20.6  2.58e-94
##  2 tree_speciesTILIA EUCHLORA   X             2.15      0.189     11.4  6.42e-30
##  3 tree_speciesPRUNUS CERASIFERA:neighbou…   -1.14      0.134     -8.56 1.12e-17
##  4 tree_speciesPRUNUS CERASIFERA:neighbou…   -1.21      0.142     -8.50 2.00e-17
##  5 tree_speciesACER PLATANOIDES:neighbour…    1.33      0.172      7.71 1.31e-14
##  6 tree_speciesACER PLATANOIDES:neighbour…   -1.17      0.155     -7.53 5.28e-14
##  7 tree_speciesTILIA EUCHLORA   X:neighbo…   -1.57      0.215     -7.31 2.66e-13
##  8 neighbourhood_nameHASTINGS-SUNRISE         0.887     0.122      7.25 4.08e-13
##  9 tree_speciesTILIA EUCHLORA   X:neighbo…   -1.52      0.212     -7.18 7.04e-13
## 10 tree_speciesMAGNOLIA KOBUS:neighbourho…   -1.28      0.188     -6.79 1.12e-11
## # ℹ 106 more rows
```
…
